{
	"info": {
		"_postman_id": "45e02a92-a50e-45c5-8bf7-bff9ea7635d9",
		"name": "Salonguru",
		"description": "Examples for Salonguru implementation",
		"schema": "https://schema.getpostman.com/json/collection/v2.1.0/collection.json"
	},
	"item": [
		{
			"name": "Get all salons",
			"protocolProfileBehavior": {
				"disableBodyPruning": true
			},
			"request": {
				"auth": {
					"type": "noauth"
				},
				"method": "GET",
				"header": [],
				"body": {
					"mode": "raw",
					"raw": "",
					"options": {
						"raw": {
							"language": "json"
						}
					}
				},
				"url": {
					"raw": "localhost:3000/salons/",
					"host": [
						"localhost"
					],
					"port": "3000",
					"path": [
						"salons",
						""
					]
				}
			},
			"response": []
		},
		{
			"name": "Get specific salon",
			"request": {
				"method": "GET",
				"header": [],
				"url": {
					"raw": "localhost:3000/salons/3",
					"host": [
						"localhost"
					],
					"port": "3000",
					"path": [
						"salons",
						"3"
					]
				}
			},
			"response": []
		},
		{
			"name": "Get salon ratings",
			"request": {
				"method": "GET",
				"header": [],
				"url": {
					"raw": "localhost:3000/salons/1/ratings",
					"host": [
						"localhost"
					],
					"port": "3000",
					"path": [
						"salons",
						"1",
						"ratings"
					]
				}
			},
			"response": []
		},
		{
			"name": "Login",
			"request": {
				"auth": {
					"type": "apikey"
				},
				"method": "POST",
				"header": [],
				"body": {
					"mode": "raw",
					"raw": "{\n    \"username\":\"philippe\",\n    \"password\":\"kayser\"\n}",
					"options": {
						"raw": {
							"language": "json"
						}
					}
				},
				"url": {
					"raw": "localhost:3000/auth",
					"host": [
						"localhost"
					],
					"port": "3000",
					"path": [
						"auth"
					]
				}
			},
			"response": []
		},
		{
			"name": "Post rating",
			"request": {
				"auth": {
					"type": "apikey",
					"apikey": [
						{
							"key": "value",
							"value": "200",
							"type": "string"
						},
						{
							"key": "key",
							"value": "user",
							"type": "string"
						}
					]
				},
				"method": "POST",
				"header": [],
				"body": {
					"mode": "raw",
					"raw": "{\n    \"rating\": 4,\n    \"comment\": \"Amazing haircut\"\n}",
					"options": {
						"raw": {
							"language": "json"
						}
					}
				},
				"url": {
					"raw": "localhost:3000/salons/3/ratings",
					"host": [
						"localhost"
					],
					"port": "3000",
					"path": [
						"salons",
						"3",
						"ratings"
					]
				}
			},
			"response": []
		},
		{
			"name": "Edit a rating",
			"request": {
				"auth": {
					"type": "apikey",
					"apikey": [
						{
							"key": "value",
							"value": "100",
							"type": "string"
						},
						{
							"key": "key",
							"value": "user",
							"type": "string"
						}
					]
				},
				"method": "PUT",
				"header": [],
				"body": {
					"mode": "raw",
					"raw": "{\n    \"ratingId\":1,\n    \"rating\":5,\n    \"comment\": \"Was super good\"\n}",
					"options": {
						"raw": {
							"language": "json"
						}
					}
				},
				"url": {
					"raw": "localhost:3000/salons/1/ratings",
					"host": [
						"localhost"
					],
					"port": "3000",
					"path": [
						"salons",
						"1",
						"ratings"
					]
				}
			},
			"response": []
		},
		{
			"name": "Delete rating",
			"request": {
				"auth": {
					"type": "apikey",
					"apikey": [
						{
							"key": "value",
							"value": "100",
							"type": "string"
						},
						{
							"key": "key",
							"value": "user",
							"type": "string"
						}
					]
				},
				"method": "DELETE",
				"header": [
					{
						"key": "user",
						"value": "100",
						"type": "text"
					}
				],
				"body": {
					"mode": "raw",
					"raw": "{\n    \"ratingId\": 1\n}",
					"options": {
						"raw": {
							"language": "json"
						}
					}
				},
				"url": {
					"raw": "localhost:3000/salons/2/ratings",
					"host": [
						"localhost"
					],
					"port": "3000",
					"path": [
						"salons",
						"2",
						"ratings"
					]
				}
			},
			"response": []
		}
	]
}